<?xml version="1.0" encoding="utf-8"?>
<!-- Generator: Adobe Illustrator 21.0.0, SVG Export Plug-In . SVG Version: 6.00 Build 0)  -->
<svg version="1.1" id="Layer_1" xmlns="http://www.w3.org/2000/svg" xmlns:xlink="http://www.w3.org/1999/xlink" x="0px" y="0px"
	 viewBox="0 0 512 512" style="enable-background:new 0 0 512 512;" xml:space="preserve">
<style type="text/css">
	.st0{fill:#F8F8F8;}
</style>
<g>
	<g>
		<path class="st0" d="M503.8,281.5c4.5,0,8.2-3.6,8.2-8.2V164.7c0-23.7-19.3-42.9-42.9-42.9h-61.4V69c0-4.5-3.6-8.2-8.2-8.2H8.2
			C3.6,60.9,0,64.5,0,69v247.8c0,4.5,3.6,8.2,8.2,8.2s8.2-3.6,8.2-8.2V207.6h375v182.3v0.9c0,17.3,7.4,33,19.1,44H60.3
			c-24.3,0-44-19.8-44-44v-30.4c0-4.5-3.6-8.2-8.2-8.2S0,355.9,0,360.4v30.4c0,33.3,27.1,60.3,60.3,60.3h391.3l0,0l0,0
			c15.9,0,30.9-6.1,42.3-17.3c11.6-11.4,18-26.7,18-43v-73.9c0-4.5-3.6-8.2-8.2-8.2s-8.2,3.6-8.2,8.2v73.9c0,11.9-4.7,23-13.2,31.4
			c-8.4,8.3-19.5,12.7-31.2,12.6c-1.7,0-3.4-0.1-5.1-0.3c-21.7-2.8-38.6-21.8-38.6-44.5v-60.6H434c4.5,0,8.2-3.6,8.2-8.2V164.7
			c0-14.7,11.9-26.6,26.6-26.6s26.6,11.9,26.6,26.6v108.7C495.7,277.9,499.3,281.5,503.8,281.5z M391.3,191.3h-375V77.2h375V191.3z
			 M426.1,164.7v148.4h-18.5v-175h27.8C429.6,145.4,426.1,154.6,426.1,164.7z"/>
	</g>
</g>
<g>
	<g>
		<path class="st0" d="M112.5,95.7c-4.5,0-8.2,3.6-8.2,8.2v38.8L66.5,98.5c-4.8-5.6-14.3-2.1-14.3,5.3v60.9c0,4.5,3.6,8.2,8.2,8.2
			s8.2-3.6,8.2-8.2v-38.8l37.8,44.1c4.8,5.6,14.3,2.1,14.3-5.3v-60.9C120.7,99.3,117,95.7,112.5,95.7z"/>
	</g>
</g>
<g>
	<g>
		<path class="st0" d="M182.1,156.5h-35.3V138h17.9c4.5,0,8.2-3.6,8.2-8.2s-3.6-8.2-8.2-8.2h-17.9V112h35.3c4.5,0,8.2-3.6,8.2-8.2
			s-3.6-8.2-8.2-8.2h-43.5c-4.5,0-8.2,3.6-8.2,8.2v60.9c0,4.5,3.6,8.2,8.2,8.2h43.5c4.5,0,8.2-3.6,8.2-8.2
			C190.2,160.2,186.6,156.5,182.1,156.5z"/>
	</g>
</g>
<g>
	<g>
		<path class="st0" d="M280,96c-4.3-1.2-8.8,1.3-10.1,5.6l-10.8,37.9l-8.5-21.3c-1.2-3.1-4.2-5.1-7.6-5.1s-6.3,2-7.6,5.1l-8.5,21.3
			L216,101.6c-1.2-4.3-5.8-6.8-10.1-5.6c-4.3,1.2-6.8,5.7-5.6,10.1l17.4,60.9c1,3.4,3.9,5.7,7.4,5.9s6.7-1.9,8-5.1l9.8-24.6
			l9.8,24.6c1.2,3.1,4.2,5.1,7.6,5.1c0.1,0,0.3,0,0.4,0c3.5-0.2,6.5-2.6,7.4-5.9l17.4-60.9C286.8,101.7,284.3,97.2,280,96z"/>
	</g>
</g>
<g>
	<g>
		<path class="st0" d="M347.3,130.4H312V112h35.3c4.5,0,8.2-3.6,8.2-8.2s-3.6-8.2-8.2-8.2h-43.5c-4.5,0-8.2,3.6-8.2,8.2v34.8
			c0,4.5,3.6,8.2,8.2,8.2h35.3v9.8h-35.3c-4.5,0-8.2,3.6-8.2,8.2s3.6,8.2,8.2,8.2h43.5c4.5,0,8.2-3.6,8.2-8.2v-26.1
			C355.5,134.1,351.8,130.4,347.3,130.4z"/>
	</g>
</g>
<g>
	<g>
		<path class="st0" d="M164.7,226.1H60.3c-4.5,0-8.2,3.6-8.2,8.2v87c0,4.5,3.6,8.2,8.2,8.2h104.4c4.5,0,8.2-3.6,8.2-8.2v-87
			C172.8,229.8,169.2,226.1,164.7,226.1z M156.5,313.1h-88v-70.7h88.1v70.7H156.5z"/>
	</g>
</g>
<g>
	<g>
		<path class="st0" d="M347.3,269.6H225.6c-4.5,0-8.2,3.6-8.2,8.2c0,4.5,3.6,8.2,8.2,8.2h121.8c4.5,0,8.2-3.6,8.2-8.2
			C355.5,273.2,351.8,269.6,347.3,269.6z"/>
	</g>
</g>
<g>
	<g>
		<path class="st0" d="M347.3,226.1H225.6c-4.5,0-8.2,3.6-8.2,8.2s3.6,8.2,8.2,8.2h121.8c4.5,0,8.2-3.6,8.2-8.2
			S351.8,226.1,347.3,226.1z"/>
	</g>
</g>
<g>
	<g>
		<path class="st0" d="M347.3,313.1H225.6c-4.5,0-8.2,3.6-8.2,8.2s3.6,8.2,8.2,8.2h121.8c4.5,0,8.2-3.6,8.2-8.2
			S351.8,313.1,347.3,313.1z"/>
	</g>
</g>
<g>
	<g>
		<path class="st0" d="M347.3,356.6H225.6c-4.5,0-8.2,3.6-8.2,8.2s3.6,8.2,8.2,8.2h121.8c4.5,0,8.2-3.6,8.2-8.2
			S351.8,356.6,347.3,356.6z"/>
	</g>
</g>
<g>
	<g>
		<path class="st0" d="M173.4,356.6H51.6c-4.5,0-8.2,3.6-8.2,8.2s3.6,8.2,8.2,8.2h121.7c4.5,0,8.2-3.6,8.2-8.2
			S177.9,356.6,173.4,356.6z"/>
	</g>
</g>
<g>
	<g>
		<path class="st0" d="M173.4,400H51.6c-4.5,0-8.2,3.6-8.2,8.2c0,4.5,3.6,8.2,8.2,8.2h121.7c4.5,0,8.2-3.6,8.2-8.2
			C181.5,403.7,177.9,400,173.4,400z"/>
	</g>
</g>
<g>
	<g>
		<path class="st0" d="M347.3,400H225.6c-4.5,0-8.2,3.6-8.2,8.2c0,4.5,3.6,8.2,8.2,8.2h121.8c4.5,0,8.2-3.6,8.2-8.2
			C355.5,403.7,351.8,400,347.3,400z"/>
	</g>
</g>
</svg>
